Assignment/Assignment 4/Assignment_4/test.vcd
$date
	Wed Nov 29 00:40:25 2023
$end
$version
	Icarus Verilog
$end
$timescale
	100fs
$end
$scope module test_CPU $end
$var reg 1 ! clk $end
$var reg 1 " rst_f $end
$scope module uut $end
$var wire 1 ! clk $end
$var wire 1 " rst_f $end
$var wire 32 # write_data_e [31:0] $end
$var wire 1 $ rst_e $end
$var wire 1 % rst_d $end
$var wire 1 & rs_rt_equal $end
$var wire 32 ' result_w [31:0] $end
$var wire 1 ( reg_write_d $end
$var wire 2 ) reg_dst_d [1:0] $end
$var wire 32 * read_data_m [31:0] $end
$var wire 32 + rd2_d [31:0] $end
$var wire 32 , rd1_d [31:0] $end
$var wire 32 - rd [31:0] $end
$var wire 2 . pc_src_d [1:0] $end
$var wire 32 / pc_plus4_f [31:0] $end
$var wire 32 0 pc_f [31:0] $end
$var wire 1 1 mem_write_d $end
$var wire 1 2 mem_used_d $end
$var wire 1 3 mem_to_reg_d $end
$var wire 1 4 is_load_d $end
$var wire 1 5 is_display_d $end
$var wire 1 6 fwd_m_d $end
$var wire 2 7 fwd_b_d [1:0] $end
$var wire 2 8 fwd_a_d [1:0] $end
$var wire 3 9 flags [2:0] $end
$var wire 1 : ext_sign_d $end
$var wire 32 ; ext_shamt_d [31:0] $end
$var wire 32 < ext_imm_d [31:0] $end
$var wire 1 = en_f $end
$var wire 1 > en_d $end
$var wire 2 ? ALU_src_B_d [1:0] $end
$var wire 2 @ ALU_src_A_d [1:0] $end
$var wire 32 A ALU_out_e [31:0] $end
$var wire 4 B ALU_control_d [3:0] $end
$var reg 4 C ALU_control_e [3:0] $end
$var reg 32 D ALU_out_m [31:0] $end
$var reg 32 E ALU_out_w [31:0] $end
$var reg 2 F ALU_src_A_e [1:0] $end
$var reg 2 G ALU_src_B_e [1:0] $end
$var reg 12 H clk_count [11:0] $end
$var reg 32 I ext_imm_e [31:0] $end
$var reg 32 J ext_shamt_e [31:0] $end
$var reg 1 K flag $end
$var reg 2 L fwd_a_e [1:0] $end
$var reg 2 M fwd_b_e [1:0] $end
$var reg 1 N fwd_m_e $end
$var reg 1 O fwd_m_m $end
$var reg 32 P instr_d [31:0] $end
$var reg 1 Q is_display_e $end
$var reg 1 R is_display_m $end
$var reg 1 S is_load_e $end
$var reg 1 T is_load_m $end
$var reg 1 U mem_to_reg_e $end
$var reg 1 V mem_to_reg_m $end
$var reg 1 W mem_to_reg_w $end
$var reg 1 X mem_used_e $end
$var reg 1 Y mem_used_m $end
$var reg 1 Z mem_write_e $end
$var reg 1 [ mem_write_m $end
$var reg 32 \ pc_d [31:0] $end
$var reg 32 ] pc_plus4_d [31:0] $end
$var reg 32 ^ pc_plus4_e [31:0] $end
$var reg 32 _ pc_reg [31:0] $end
$var reg 32 ` rd1_e [31:0] $end
$var reg 32 a rd1_fwd [31:0] $end
$var reg 32 b rd2_e [31:0] $end
$var reg 32 c rd2_fwd [31:0] $end
$var reg 5 d rd_e [4:0] $end
$var reg 32 e read_data_w [31:0] $end
$var reg 2 f reg_dst_e [1:0] $end
$var reg 1 g reg_write_e $end
$var reg 1 h reg_write_m $end
$var reg 1 i reg_write_w $end
$var reg 5 j rt_e [4:0] $end
$var reg 32 k src_A_e [31:0] $end
$var reg 32 l src_B_e [31:0] $end
$var reg 32 m write_data_m [31:0] $end
$var reg 5 n write_reg_e [4:0] $end
$var reg 5 o write_reg_m [4:0] $end
$var reg 5 p write_reg_w [4:0] $end
$var reg 1 q zero_m $end
$scope module alu $end
$var wire 4 r ALU_control [3:0] $end
$var wire 32 s a [31:0] $end
$var wire 32 t b [31:0] $end
$var reg 3 u flags [2:0] $end
$var reg 32 v result [31:0] $end
$var reg 32 w temp [31:0] $end
$upscope $end
$scope module control_unit $end
$var wire 5 x addr_rs [4:0] $end
$var wire 5 y addr_rt [4:0] $end
$var wire 6 z funct [5:0] $end
$var wire 1 S is_load_e $end
$var wire 1 T is_load_m $end
$var wire 6 { op [5:0] $end
$var wire 1 g reg_write_e $end
$var wire 1 h reg_write_m $end
$var wire 1 & rs_rt_equal $end
$var wire 5 | write_reg_e [4:0] $end
$var wire 5 } write_reg_m [4:0] $end
$var reg 4 ~ ALU_control [3:0] $end
$var reg 2 !" ALU_src_A [1:0] $end
$var reg 2 "" ALU_src_B [1:0] $end
$var reg 1 > en_d $end
$var reg 1 = en_f $end
$var reg 1 : ext_sign $end
$var reg 2 #" fwd_a [1:0] $end
$var reg 2 $" fwd_b [1:0] $end
$var reg 1 6 fwd_m $end
$var reg 1 5 is_display $end
$var reg 1 %" is_link $end
$var reg 1 4 is_load $end
$var reg 1 &" is_store $end
$var reg 1 3 mem_to_reg $end
$var reg 1 2 mem_used $end
$var reg 1 1 mem_write $end
$var reg 2 '" pc_src [1:0] $end
$var reg 2 (" reg_dst [1:0] $end
$var reg 1 )" reg_stall $end
$var reg 1 ( reg_write $end
$var reg 1 *" rs_used $end
$var reg 1 % rst_d $end
$var reg 1 $ rst_e $end
$var reg 1 +" rt_used $end
$upscope $end
$scope module instruction_RAM $end
$var wire 1 ! CLOCK $end
$var wire 64 ," DATA_0 [63:0] $end
$var wire 1 -" ENABLE $end
$var wire 32 ." FETCH_ADDRESS [31:0] $end
$var wire 1 /" RESET $end
$var wire 64 0" x1_projection [63:0] $end
$var wire 32 1" x1 [31:0] $end
$var wire 64 2" wild_0 [63:0] $end
$var wire 64 3" wild [63:0] $end
$var wire 64 4" \c$wild_app_arg_0 [63:0] $end
$var wire 64 5" \c$wild_app_arg [63:0] $end
$var reg 32 6" DATA [31:0] $end
$scope begin InstructionRAM_blockRamFile $end
$upscope $end
$upscope $end
$scope module main_memory $end
$var wire 1 ! CLOCK $end
$var wire 65 7" EDIT_SERIAL [64:0] $end
$var wire 1 Y ENABLE $end
$var wire 32 8" FETCH_ADDRESS [31:0] $end
$var wire 1 R IS_DISPLAY $end
$var wire 1 9" RESET $end
$var wire 1 :" is_display $end
$var wire 64 ;" wild_0 [63:0] $end
$var wire 64 <" wild [63:0] $end
$var wire 64 =" ds [63:0] $end
$var wire 64 >" \c$wild_app_arg_0 [63:0] $end
$var wire 64 ?" \c$wild_app_arg [63:0] $end
$var wire 32 @" \c$i [31:0] $end
$var wire 1 A" \c$app_arg $end
$var wire 64 B" a1 [63:0] $end
$var reg 32 C" DATA [31:0] $end
$var reg 16384 D" ram_init [16383:0] $end
$var integer 32 E" file_out [31:0] $end
$var integer 32 F" i [31:0] $end
$var integer 32 G" j [31:0] $end
$scope begin DATA_blockRam $end
$upscope $end
$upscope $end
$scope module register_file $end
$var wire 5 H" a1 [4:0] $end
$var wire 5 I" a2 [4:0] $end
$var wire 5 J" a3 [4:0] $end
$var wire 1 ! clk $end
$var wire 32 K" wd3 [31:0] $end
$var wire 1 i we3 $end
$var wire 32 L" rd2 [31:0] $end
$var wire 32 M" rd1 [31:0] $end
$upscope $end
$upscope $end
$upscope $end
$enddefinitions $end
#0
$dumpvars
bx M"
bx L"
bx K"
bx J"
bx I"
bx H"
bx G"
b1000000000 F"
b10000000000000000000000000000011 E"
b0 D"
bx C"
b0xxxxxxxxxxxxxxxxxxxxxxxxxxxxxxxxxxxxxxxxxxxxxxxxxxxxxxxxxxxxxx B"
xA"
bx @"
b0xxxxxxxxxxxxxxxxxxxxxxxxxxxxxx ?"
b0xxxxxxxxxxxxxxxxxxxxxxxxxxxxxxxx >"
bx ="
b0xxxxxxxxxxxxxxxxxxxxxxxxxxxxxx <"
b0xxxxxxxxxxxxxxxxxxxxxxxxxxxxxxxx ;"
x:"
z9"
b0xxxxxxxxxxxxxxxxxxxxxxxxxxxxxx 8"
bx00xxxxxxxxxxxxxxxxxxxxxxxxxxxxxxxxxxxxxxxxxxxxxxxxxxxxxxxxxxxxxx 7"
bx 6"
b0 5"
b0xxxxxxxxxxxxxxxxxxxxxxxxxxxxxxxx 4"
b0 3"
b0xxxxxxxxxxxxxxxxxxxxxxxxxxxxxxxx 2"
bx 1"
bx 0"
z/"
b0 ."
1-"
bx ,"
0+"
0*"
0)"
b0 ("
b0 '"
0&"
0%"
b0 $"
b0 #"
b0 ""
b0 !"
b0 ~
bx }
bx |
bx {
bx z
bx y
bx x
bx w
bx v
bx u
bx t
bx s
bx r
xq
bx p
bx o
bx n
bx m
bx l
bx k
bx j
xi
xh
xg
bx f
bx e
bx d
bx c
bx b
bx a
bx `
b0 _
bx ^
bx ]
bx \
x[
xZ
xY
xX
xW
xV
xU
xT
xS
xR
xQ
bx P
xO
xN
bx M
bx L
0K
b0xxxxx J
bx I
b1 H
bx G
bx F
bx E
bx D
bx C
b0 B
bx A
b0 @
b0 ?
1>
1=
b0xxxxxxxxxxxxxxxx <
b0xxxxx ;
0:
bx 9
b0 8
b0 7
06
05
04
03
02
01
b0 0
b100 /
b0 .
bx -
bx ,
bx +
bx *
b0 )
0(
bx '
x&
0%
0$
bx #
1"
1!
$end
#100000
b0 -
b0 6"
0"
0!
#200000
1&
b0 c
b0 a
1+"
1*"
1(
b1 @
b1 !"
b1000 B
b1000 ~
b0 ,
b0 M"
b0 +
b0 L"
b0 <
b0 9
b0 u
bx A
bx v
b0 {
b0 x
b0 y
b0 z
b0 H"
b0 I"
b0 ;
b1 3"
b1 5"
b1 ."
0Q
0N
b0 M
b0 L
b0xxxxxxxxxxxxxxxx I
b0 f
b0 G
b0 F
b0 C
b0 r
0X
0Z
0U
0S
0g
b100 ]
b0 \
b0 P
b1000 /
b100 0
b100 _
b10 H
1!
#300000
0!
#400000
0A"
b10 3"
b10 5"
b10 ."
b0 n
b0 |
b0 l
b0 t
b0 k
b0 s
b0 A
b0 v
b11 H
b1100 /
b1000 0
b1000 _
b1000 ]
b100 \
b100 ^
b0 d
b0 j
b0 J
b0 I
b0 #
b0 b
b0 `
b1 F
b1000 C
b1000 r
1g
0O
0T
0q
0:"
0R
0Y
b0xxxxxxxxxxxxxxxxxxxxxxxxxxxxxxxxxxxxxxxxxxxxxxxxxxxxxxxxxxxxxx 7"
0[
0V
0h
1!
#500000
0!
#600000
b0 B"
b0 <"
b0 ?"
b0 8"
b11 3"
b11 5"
b11 ."
0W
0i
b0 7"
b0 m
b0 o
b0 }
b0 D
1h
b1000 ^
b1100 ]
b1000 \
b10000 /
b1100 0
b1100 _
b100 H
1!
#700000
0!
#800000
b100 3"
b100 5"
b100 ."
b0 '
b0 K"
b101 H
b10100 /
b10000 0
b10000 _
b10000 ]
b1100 \
b1100 ^
b0 p
b0 J"
b0 E
1i
1!
#900000
0!
#1000000
b101 3"
b101 5"
b101 ."
b10000 ^
b10100 ]
b10000 \
b11000 /
b10100 0
b10100 _
b110 H
1!
#1100000
0!
#1200000
b110 3"
b110 5"
b110 ."
b111 H
b11100 /
b11000 0
b11000 _
b11000 ]
b10100 \
b10100 ^
1!
#1300000
0!
#1400000
b111 3"
b111 5"
b111 ."
b11000 ^
b11100 ]
b11000 \
b100000 /
b11100 0
b11100 _
b1000 H
1!
#1500000
0!
#1600000
b1000 3"
b1000 5"
b1000 ."
b1001 H
b100100 /
b100000 0
b100000 _
b100000 ]
b11100 \
b11100 ^
1!
#1700000
b1000000000 -
b1000000000 6"
0!
#1800000
b1000000000 <
b1000 ;
b1001 3"
b1001 5"
b1001 ."
b100000 ^
b100100 ]
b100000 \
b1000000000 P
b101000 /
b100100 0
b100100 _
b1010 H
1!
#1900000
b1 -
b1 6"
0!
#2000000
0+"
0*"
b0 @
b0 !"
b0 B
b0 ~
0(
b1 <
b1010 3"
b1010 5"
b1010 ."
b1 z
b0 ;
b1000 k
b1000 s
b1011 H
b101100 /
b101000 0
b101000 _
b101000 ]
b100100 \
b1 P
b100100 ^
b1000 J
b1000000000 I
1!
#2100000
b110010000 -
b110010000 6"
0!
#2200000
b110010000 <
b0 k
b0 s
b0 A
b0 v
b10000 z
b110 ;
b1011 3"
b1011 5"
b1011 ."
b101000 ^
b0 J
b1 I
b0 F
b0 C
b0 r
0g
b101100 ]
b101000 \
b110010000 P
b110000 /
b101100 0
b101100 _
b1100 H
1!
#2300000
b1100100000 -
b1100100000 6"
0!
#2400000
1+"
1*"
1(
b1100100000 <
b1100 3"
b1100 5"
b1100 ."
b100000 z
b1100 ;
b1101 H
b110100 /
b110000 0
b110000 _
b110000 ]
b101100 \
b1100100000 P
b101100 ^
b110 J
b110010000 I
0h
1!
#2500000
b1 -
b1 6"
0!
#2600000
0+"
0*"
0(
b1 <
b1 z
b0 ;
b1101 3"
b1101 5"
b1101 ."
0i
b110000 ^
b1100 J
b1100100000 I
1g
b110100 ]
b110000 \
b1 P
b111000 /
b110100 0
b110100 _
b1110 H
1!
#2700000
0!
#2800000
b1110 3"
b1110 5"
b1110 ."
b1111 H
b111100 /
b111000 0
b111000 _
b111000 ]
b110100 \
b110100 ^
b0 J
b1 I
0g
1h
1!
#2900000
0!
#3000000
b1111 3"
b1111 5"
b1111 ."
1i
0h
b111000 ^
b111100 ]
b111000 \
b1000000 /
b111100 0
b111100 _
b10000 H
1!
#3100000
b0 -
b0 6"
0!
#3200000
1+"
1*"
1(
b1 @
b1 !"
b1000 B
b1000 ~
b0 <
b10000 3"
b10000 5"
b10000 ."
b0 z
b10001 H
b1000100 /
b1000000 0
b1000000 _
b1000000 ]
b111100 \
b0 P
b111100 ^
0i
1!
#3300000
0!
#3400000
b10001 3"
b10001 5"
b10001 ."
b1000000 ^
b0 I
b1 F
b1000 C
b1000 r
1g
b1000100 ]
b1000000 \
b1001000 /
b1000100 0
b1000100 _
b10010 H
1!
#3500000
0!
#3600000
b10010 3"
b10010 5"
b10010 ."
b10011 H
b1001100 /
b1001000 0
b1001000 _
b1001000 ]
b1000100 \
b1000100 ^
1h
1!
#3700000
0!
#3800000
b10011 3"
b10011 5"
b10011 ."
1i
b1001000 ^
b1001100 ]
b1001000 \
b1010000 /
b1001100 0
b1001100 _
b10100 H
1!
#3900000
0!
#4000000
b10100 3"
b10100 5"
b10100 ."
b10101 H
b1010100 /
b1010000 0
b1010000 _
b1010000 ]
b1001100 \
b1001100 ^
1!
#4100000
0!
#4200000
b10101 3"
b10101 5"
b10101 ."
b1010000 ^
b1010100 ]
b1010000 \
b1011000 /
b1010100 0
b1010100 _
b10110 H
1!
#4300000
0!
#4400000
b10110 3"
b10110 5"
b10110 ."
b10111 H
b1011100 /
b1011000 0
b1011000 _
b1011000 ]
b1010100 \
b1010100 ^
1!
#4500000
0!
#4600000
b10111 3"
b10111 5"
b10111 ."
b1011000 ^
b1011100 ]
b1011000 \
b1100000 /
b1011100 0
b1011100 _
b11000 H
1!
#4700000
0!
#4800000
b11000 3"
b11000 5"
b11000 ."
b11001 H
b1100100 /
b1100000 0
b1100000 _
b1100000 ]
b1011100 \
b1011100 ^
1!
#4900000
0!
#5000000
b11001 3"
b11001 5"
b11001 ."
b1100000 ^
b1100100 ]
b1100000 \
b1101000 /
b1100100 0
b1100100 _
b11010 H
1!
#5100000
0!
#5200000
b11010 3"
b11010 5"
b11010 ."
b11011 H
b1101100 /
b1101000 0
b1101000 _
b1101000 ]
b1100100 \
b1100100 ^
1!
#5300000
0!
#5400000
b11011 3"
b11011 5"
b11011 ."
b1101000 ^
b1101100 ]
b1101000 \
b1110000 /
b1101100 0
b1101100 _
b11100 H
1!
#5500000
0!
#5600000
b11100 3"
b11100 5"
b11100 ."
b11101 H
b1110100 /
b1110000 0
b1110000 _
b1110000 ]
b1101100 \
b1101100 ^
1!
#5700000
0!
#5800000
b11101 3"
b11101 5"
b11101 ."
b1110000 ^
b1110100 ]
b1110000 \
b1111000 /
b1110100 0
b1110100 _
b11110 H
1!
#5900000
0!
#6000000
b11110 3"
b11110 5"
b11110 ."
b11111 H
b1111100 /
b1111000 0
b1111000 _
b1111000 ]
b1110100 \
b1110100 ^
1!
#6100000
0!
#6200000
b11111 3"
b11111 5"
b11111 ."
b1111000 ^
b1111100 ]
b1111000 \
b10000000 /
b1111100 0
b1111100 _
b100000 H
1!
#6300000
0!
#6400000
b100000 3"
b100000 5"
b100000 ."
b100001 H
b10000100 /
b10000000 0
b10000000 _
b10000000 ]
b1111100 \
b1111100 ^
1!
#6500000
0!
#6600000
b100001 3"
b100001 5"
b100001 ."
b10000000 ^
b10000100 ]
b10000000 \
b10001000 /
b10000100 0
b10000100 _
b100010 H
1!
#6700000
0!
#6800000
b100010 3"
b100010 5"
b100010 ."
b100011 H
b10001100 /
b10001000 0
b10001000 _
b10001000 ]
b10000100 \
b10000100 ^
1!
#6900000
0!
#7000000
b100011 3"
b100011 5"
b100011 ."
b10001000 ^
b10001100 ]
b10001000 \
b10010000 /
b10001100 0
b10001100 _
b100100 H
1!
#7100000
0!
#7200000
b100100 3"
b100100 5"
b100100 ."
b100101 H
b10010100 /
b10010000 0
b10010000 _
b10010000 ]
b10001100 \
b10001100 ^
1!
#7300000
0!
#7400000
b100101 3"
b100101 5"
b100101 ."
b10010000 ^
b10010100 ]
b10010000 \
b10011000 /
b10010100 0
b10010100 _
b100110 H
1!
#7500000
0!
#7600000
b100110 3"
b100110 5"
b100110 ."
b100111 H
b10011100 /
b10011000 0
b10011000 _
b10011000 ]
b10010100 \
b10010100 ^
1!
#7700000
0!
#7800000
b100111 3"
b100111 5"
b100111 ."
b10011000 ^
b10011100 ]
b10011000 \
b10100000 /
b10011100 0
b10011100 _
b101000 H
1!
#7900000
0!
#8000000
b101000 3"
b101000 5"
b101000 ."
b101001 H
b10100100 /
b10100000 0
b10100000 _
b10100000 ]
b10011100 \
b10011100 ^
1!
#8100000
0!
#8200000
b101001 3"
b101001 5"
b101001 ."
b10100000 ^
b10100100 ]
b10100000 \
b10101000 /
b10100100 0
b10100100 _
b101010 H
1!
#8300000
0!
#8400000
b101010 3"
b101010 5"
b101010 ."
b101011 H
b10101100 /
b10101000 0
b10101000 _
b10101000 ]
b10100100 \
b10100100 ^
1!
#8500000
0!
#8600000
b101011 3"
b101011 5"
b101011 ."
b10101000 ^
b10101100 ]
b10101000 \
b10110000 /
b10101100 0
b10101100 _
b101100 H
1!
#8700000
0!
#8800000
b101100 3"
b101100 5"
b101100 ."
b101101 H
b10110100 /
b10110000 0
b10110000 _
b10110000 ]
b10101100 \
b10101100 ^
1!
#8900000
0!
#9000000
b101101 3"
b101101 5"
b101101 ."
b10110000 ^
b10110100 ]
b10110000 \
b10111000 /
b10110100 0
b10110100 _
b101110 H
1!
#9100000
0!
#9200000
b101110 3"
b101110 5"
b101110 ."
b101111 H
b10111100 /
b10111000 0
b10111000 _
b10111000 ]
b10110100 \
b10110100 ^
1!
#9300000
0!
#9400000
b101111 3"
b101111 5"
b101111 ."
b10111000 ^
b10111100 ]
b10111000 \
b11000000 /
b10111100 0
b10111100 _
b110000 H
1!
#9500000
0!
#9600000
b110000 3"
b110000 5"
b110000 ."
b110001 H
b11000100 /
b11000000 0
b11000000 _
b11000000 ]
b10111100 \
b10111100 ^
1!
#9700000
0!
#9800000
b110001 3"
b110001 5"
b110001 ."
b11000000 ^
b11000100 ]
b11000000 \
b11001000 /
b11000100 0
b11000100 _
b110010 H
1!
#9900000
0!
#10000000
b110010 3"
b110010 5"
b110010 ."
b110011 H
b11001100 /
b11001000 0
b11001000 _
b11001000 ]
b11000100 \
b11000100 ^
1!
#10100000
0!
#10200000
b110011 3"
b110011 5"
b110011 ."
b11001000 ^
b11001100 ]
b11001000 \
b11010000 /
b11001100 0
b11001100 _
b110100 H
1!
#10300000
0!
#10400000
b110100 3"
b110100 5"
b110100 ."
b110101 H
b11010100 /
b11010000 0
b11010000 _
b11010000 ]
b11001100 \
b11001100 ^
1!
#10500000
0!
#10600000
b110101 3"
b110101 5"
b110101 ."
b11010000 ^
b11010100 ]
b11010000 \
b11011000 /
b11010100 0
b11010100 _
b110110 H
1!
#10700000
0!
#10800000
b110110 3"
b110110 5"
b110110 ."
b110111 H
b11011100 /
b11011000 0
b11011000 _
b11011000 ]
b11010100 \
b11010100 ^
1!
#10900000
0!
#11000000
b110111 3"
b110111 5"
b110111 ."
b11011000 ^
b11011100 ]
b11011000 \
b11100000 /
b11011100 0
b11011100 _
b111000 H
1!
#11100000
0!
#11200000
b111000 3"
b111000 5"
b111000 ."
b111001 H
b11100100 /
b11100000 0
b11100000 _
b11100000 ]
b11011100 \
b11011100 ^
1!
#11300000
0!
#11400000
b111001 3"
b111001 5"
b111001 ."
b11100000 ^
b11100100 ]
b11100000 \
b11101000 /
b11100100 0
b11100100 _
b111010 H
1!
#11500000
0!
#11600000
b111010 3"
b111010 5"
b111010 ."
b111011 H
b11101100 /
b11101000 0
b11101000 _
b11101000 ]
b11100100 \
b11100100 ^
1!
#11700000
0!
#11800000
b111011 3"
b111011 5"
b111011 ."
b11101000 ^
b11101100 ]
b11101000 \
b11110000 /
b11101100 0
b11101100 _
b111100 H
1!
#11900000
0!
#12000000
b111100 3"
b111100 5"
b111100 ."
b111101 H
b11110100 /
b11110000 0
b11110000 _
b11110000 ]
b11101100 \
b11101100 ^
1!
#12100000
0!
#12200000
b111101 3"
b111101 5"
b111101 ."
b11110000 ^
b11110100 ]
b11110000 \
b11111000 /
b11110100 0
b11110100 _
b111110 H
1!
#12300000
0!
#12400000
b111110 3"
b111110 5"
b111110 ."
b111111 H
b11111100 /
b11111000 0
b11111000 _
b11111000 ]
b11110100 \
b11110100 ^
1!
#12500000
0!
#12600000
b111111 3"
b111111 5"
b111111 ."
b11111000 ^
b11111100 ]
b11111000 \
b100000000 /
b11111100 0
b11111100 _
b1000000 H
1!
#12700000
0!
#12800000
b1000000 3"
b1000000 5"
b1000000 ."
b1000001 H
b100000100 /
b100000000 0
b100000000 _
b100000000 ]
b11111100 \
b11111100 ^
1!
#12900000
0!
#13000000
b1000001 3"
b1000001 5"
b1000001 ."
b100000000 ^
b100000100 ]
b100000000 \
b100001000 /
b100000100 0
b100000100 _
b1000010 H
1!
#13100000
0!
#13200000
b1000010 3"
b1000010 5"
b1000010 ."
b1000011 H
b100001100 /
b100001000 0
b100001000 _
b100001000 ]
b100000100 \
b100000100 ^
1!
#13300000
0!
#13400000
b1000011 3"
b1000011 5"
b1000011 ."
b100001000 ^
b100001100 ]
b100001000 \
b100010000 /
b100001100 0
b100001100 _
b1000100 H
1!
#13500000
0!
#13600000
b1000100 3"
b1000100 5"
b1000100 ."
b1000101 H
b100010100 /
b100010000 0
b100010000 _
b100010000 ]
b100001100 \
b100001100 ^
1!
#13700000
0!
#13800000
b1000101 3"
b1000101 5"
b1000101 ."
b100010000 ^
b100010100 ]
b100010000 \
b100011000 /
b100010100 0
b100010100 _
b1000110 H
1!
#13900000
0!
#14000000
b1000110 3"
b1000110 5"
b1000110 ."
b1000111 H
b100011100 /
b100011000 0
b100011000 _
b100011000 ]
b100010100 \
b100010100 ^
1!
#14100000
0!
#14200000
b1000111 3"
b1000111 5"
b1000111 ."
b100011000 ^
b100011100 ]
b100011000 \
b100100000 /
b100011100 0
b100011100 _
b1001000 H
1!
#14300000
0!
#14400000
b1001000 3"
b1001000 5"
b1001000 ."
b1001001 H
b100100100 /
b100100000 0
b100100000 _
b100100000 ]
b100011100 \
b100011100 ^
1!
#14500000
0!
#14600000
b1001001 3"
b1001001 5"
b1001001 ."
b100100000 ^
b100100100 ]
b100100000 \
b100101000 /
b100100100 0
b100100100 _
b1001010 H
1!
#14700000
0!
#14800000
b1001010 3"
b1001010 5"
b1001010 ."
b1001011 H
b100101100 /
b100101000 0
b100101000 _
b100101000 ]
b100100100 \
b100100100 ^
1!
#14900000
0!
#15000000
b1001011 3"
b1001011 5"
b1001011 ."
b100101000 ^
b100101100 ]
b100101000 \
b100110000 /
b100101100 0
b100101100 _
b1001100 H
1!
#15100000
0!
#15200000
b1001100 3"
b1001100 5"
b1001100 ."
b1001101 H
b100110100 /
b100110000 0
b100110000 _
b100110000 ]
b100101100 \
b100101100 ^
1!
#15300000
0!
#15400000
b1001101 3"
b1001101 5"
b1001101 ."
b100110000 ^
b100110100 ]
b100110000 \
b100111000 /
b100110100 0
b100110100 _
b1001110 H
1!
#15500000
0!
#15600000
b1001110 3"
b1001110 5"
b1001110 ."
b1001111 H
b100111100 /
b100111000 0
b100111000 _
b100111000 ]
b100110100 \
b100110100 ^
1!
#15700000
0!
#15800000
b1001111 3"
b1001111 5"
b1001111 ."
b100111000 ^
b100111100 ]
b100111000 \
b101000000 /
b100111100 0
b100111100 _
b1010000 H
1!
#15900000
0!
#16000000
b1010000 3"
b1010000 5"
b1010000 ."
b1010001 H
b101000100 /
b101000000 0
b101000000 _
b101000000 ]
b100111100 \
b100111100 ^
1!
#16100000
0!
#16200000
b1010001 3"
b1010001 5"
b1010001 ."
b101000000 ^
b101000100 ]
b101000000 \
b101001000 /
b101000100 0
b101000100 _
b1010010 H
1!
#16300000
0!
#16400000
b1010010 3"
b1010010 5"
b1010010 ."
b1010011 H
b101001100 /
b101001000 0
b101001000 _
b101001000 ]
b101000100 \
b101000100 ^
1!
#16500000
0!
#16600000
b1010011 3"
b1010011 5"
b1010011 ."
b101001000 ^
b101001100 ]
b101001000 \
b101010000 /
b101001100 0
b101001100 _
b1010100 H
1!
#16700000
0!
#16800000
b1010100 3"
b1010100 5"
b1010100 ."
b1010101 H
b101010100 /
b101010000 0
b101010000 _
b101010000 ]
b101001100 \
b101001100 ^
1!
#16900000
0!
#17000000
b1010101 3"
b1010101 5"
b1010101 ."
b101010000 ^
b101010100 ]
b101010000 \
b101011000 /
b101010100 0
b101010100 _
b1010110 H
1!
#17100000
0!
#17200000
b1010110 3"
b1010110 5"
b1010110 ."
b1010111 H
b101011100 /
b101011000 0
b101011000 _
b101011000 ]
b101010100 \
b101010100 ^
1!
#17300000
0!
#17400000
b1010111 3"
b1010111 5"
b1010111 ."
b101011000 ^
b101011100 ]
b101011000 \
b101100000 /
b101011100 0
b101011100 _
b1011000 H
1!
#17500000
0!
#17600000
b1011000 3"
b1011000 5"
b1011000 ."
b1011001 H
b101100100 /
b101100000 0
b101100000 _
b101100000 ]
b101011100 \
b101011100 ^
1!
#17700000
0!
#17800000
b1011001 3"
b1011001 5"
b1011001 ."
b101100000 ^
b101100100 ]
b101100000 \
b101101000 /
b101100100 0
b101100100 _
b1011010 H
1!
#17900000
0!
#18000000
b1011010 3"
b1011010 5"
b1011010 ."
b1011011 H
b101101100 /
b101101000 0
b101101000 _
b101101000 ]
b101100100 \
b101100100 ^
1!
#18100000
0!
#18200000
b1011011 3"
b1011011 5"
b1011011 ."
b101101000 ^
b101101100 ]
b101101000 \
b101110000 /
b101101100 0
b101101100 _
b1011100 H
1!
#18300000
0!
#18400000
b1011100 3"
b1011100 5"
b1011100 ."
b1011101 H
b101110100 /
b101110000 0
b101110000 _
b101110000 ]
b101101100 \
b101101100 ^
1!
#18500000
0!
#18600000
b1011101 3"
b1011101 5"
b1011101 ."
b101110000 ^
b101110100 ]
b101110000 \
b101111000 /
b101110100 0
b101110100 _
b1011110 H
1!
#18700000
0!
#18800000
b1011110 3"
b1011110 5"
b1011110 ."
b1011111 H
b101111100 /
b101111000 0
b101111000 _
b101111000 ]
b101110100 \
b101110100 ^
1!
#18900000
0!
#19000000
b1011111 3"
b1011111 5"
b1011111 ."
b101111000 ^
b101111100 ]
b101111000 \
b110000000 /
b101111100 0
b101111100 _
b1100000 H
1!
#19100000
0!
#19200000
b1100000 3"
b1100000 5"
b1100000 ."
b1100001 H
b110000100 /
b110000000 0
b110000000 _
b110000000 ]
b101111100 \
b101111100 ^
1!
#19300000
0!
#19400000
b1100001 3"
b1100001 5"
b1100001 ."
b110000000 ^
b110000100 ]
b110000000 \
b110001000 /
b110000100 0
b110000100 _
b1100010 H
1!
#19500000
0!
#19600000
b1100010 3"
b1100010 5"
b1100010 ."
b1100011 H
b110001100 /
b110001000 0
b110001000 _
b110001000 ]
b110000100 \
b110000100 ^
1!
#19700000
0!
#19800000
b1100011 3"
b1100011 5"
b1100011 ."
b110001000 ^
b110001100 ]
b110001000 \
b110010000 /
b110001100 0
b110001100 _
b1100100 H
1!
#19900000
0!
#20000000
b1100100 3"
b1100100 5"
b1100100 ."
b1100101 H
b110010100 /
b110010000 0
b110010000 _
b110010000 ]
b110001100 \
b110001100 ^
1!
#20100000
0!
#20200000
b1100101 3"
b1100101 5"
b1100101 ."
b110010000 ^
b110010100 ]
b110010000 \
b110011000 /
b110010100 0
b110010100 _
b1100110 H
1!
#20300000
0!
#20400000
b1100110 3"
b1100110 5"
b1100110 ."
b1100111 H
b110011100 /
b110011000 0
b110011000 _
b110011000 ]
b110010100 \
b110010100 ^
1!
#20500000
0!
#20600000
b1100111 3"
b1100111 5"
b1100111 ."
b110011000 ^
b110011100 ]
b110011000 \
b110100000 /
b110011100 0
b110011100 _
b1101000 H
1!
#20700000
0!
#20800000
b1101000 3"
b1101000 5"
b1101000 ."
b1101001 H
b110100100 /
b110100000 0
b110100000 _
b110100000 ]
b110011100 \
b110011100 ^
1!
#20900000
0!
#21000000
b1101001 3"
b1101001 5"
b1101001 ."
b110100000 ^
b110100100 ]
b110100000 \
b110101000 /
b110100100 0
b110100100 _
b1101010 H
1!
#21100000
0!
#21200000
b1101010 3"
b1101010 5"
b1101010 ."
b1101011 H
b110101100 /
b110101000 0
b110101000 _
b110101000 ]
b110100100 \
b110100100 ^
1!
#21300000
0!
#21400000
b1101011 3"
b1101011 5"
b1101011 ."
b110101000 ^
b110101100 ]
b110101000 \
b110110000 /
b110101100 0
b110101100 _
b1101100 H
1!
#21500000
0!
#21600000
b1101100 3"
b1101100 5"
b1101100 ."
b1101101 H
b110110100 /
b110110000 0
b110110000 _
b110110000 ]
b110101100 \
b110101100 ^
1!
#21700000
0!
