Assignment/Assignment 4/CSC3050_P4/wave.vcd
$date
	Wed Nov 29 02:26:09 2023
$end
$version
	Icarus Verilog
$end
$timescale
	1ps
$end
$scope module cpu_test $end
$var reg 1 ! clock $end
$scope module testedCPU $end
$var wire 1 ! CLK $end
$var wire 1 " CLOCK $end
$var wire 5 # SrcC_E [4:0] $end
$var wire 32 $ WriteData_E [31:0] $end
$var wire 1 % waiting $end
$var wire 32 & se_imme_E [31:0] $end
$var wire 32 ' se_imme_D [31:0] $end
$var wire 32 ( regB_val_E [31:0] $end
$var wire 32 ) regB_val_D [31:0] $end
$var wire 32 * regA_val_E [31:0] $end
$var wire 32 + regA_val_D [31:0] $end
$var wire 32 , inst_F [31:0] $end
$var wire 32 - inst_D [31:0] $end
$var wire 1 . fin_sign $end
$var wire 5 / WriteReg_W [4:0] $end
$var wire 5 0 WriteReg_M [4:0] $end
$var wire 5 1 WriteReg_E [4:0] $end
$var wire 32 2 WriteData_M [31:0] $end
$var wire 1 3 Stall_F $end
$var wire 1 4 Stall_D $end
$var wire 32 5 SrcB_inter_E [31:0] $end
$var wire 32 6 SrcB_E [31:0] $end
$var wire 32 7 SrcA_E [31:0] $end
$var wire 5 8 Sa_E [4:0] $end
$var wire 5 9 Sa_D [4:0] $end
$var wire 5 : Rt_E [4:0] $end
$var wire 5 ; Rt_D [4:0] $end
$var wire 5 < Rs_E [4:0] $end
$var wire 5 = Rs_D [4:0] $end
$var wire 32 > Result_W [31:0] $end
$var wire 1 ? RegWrite_W $end
$var wire 1 @ RegWrite_M $end
$var wire 1 A RegWrite_E $end
$var wire 1 B RegWrite_D $end
$var wire 1 C RegDst_E $end
$var wire 1 D RegDst_D $end
$var wire 32 E ReadData_W [31:0] $end
$var wire 32 F ReadData_M [31:0] $end
$var wire 5 G Rd_E [4:0] $end
$var wire 5 H Rd_D [4:0] $end
$var wire 32 I PC_pre [31:0] $end
$var wire 32 J PC_jump_D [31:0] $end
$var wire 32 K PC_branch_D [31:0] $end
$var wire 32 L PC_add4_F [31:0] $end
$var wire 32 M PC_add4_D [31:0] $end
$var wire 3 N PC_Src_S [2:0] $end
$var wire 32 O PC_F [31:0] $end
$var wire 6 P Opcode_E [5:0] $end
$var wire 6 Q Opcode_D [5:0] $end
$var wire 1 R MemtoReg_W $end
$var wire 1 S MemtoReg_M $end
$var wire 1 T MemtoReg_E $end
$var wire 1 U MemtoReg_D $end
$var wire 1 V MemWrite_M $end
$var wire 1 W MemWrite_E $end
$var wire 1 X MemWrite_D $end
$var wire 1 Y Jump_D $end
$var wire 6 Z Funct_E [5:0] $end
$var wire 6 [ Funct_D [5:0] $end
$var wire 2 \ ForwardB_E [1:0] $end
$var wire 2 ] ForwardA_E [1:0] $end
$var wire 1 ^ Flush_E $end
$var wire 1 _ Flush_D $end
$var wire 1 ` Branch_D $end
$var wire 1 a ALUZero_M $end
$var wire 1 b ALUZero_E $end
$var wire 1 c ALUSrc_E $end
$var wire 1 d ALUSrc_D $end
$var wire 32 e ALUOut_W [31:0] $end
$var wire 32 f ALUOut_M [31:0] $end
$var wire 32 g ALUOut_E [31:0] $end
$var wire 1 h ALUNeg_M $end
$var wire 1 i ALUNeg_E $end
$scope module alu $end
$var wire 32 j result [31:0] $end
$var wire 5 k SrcC [4:0] $end
$var wire 32 l SrcB [31:0] $end
$var wire 32 m SrcA [31:0] $end
$var wire 6 n Opcode [5:0] $end
$var wire 6 o Funct [5:0] $end
$var reg 1 i neg $end
$var reg 1 b zero $end
$scope function result_out $end
$var reg 6 p Funct [5:0] $end
$var reg 6 q Opcode [5:0] $end
$var reg 32 r SrcA [31:0] $end
$var reg 32 s SrcB [31:0] $end
$var reg 5 t SrcC [4:0] $end
$upscope $end
$upscope $end
$scope module branch_gen $end
$var wire 32 u se_imme_in [31:0] $end
$var wire 32 v branch_out [31:0] $end
$var wire 32 w PC_add4_in [31:0] $end
$upscope $end
$scope module control_unit $end
$var wire 6 x Funct_out [5:0] $end
$var wire 6 y Opcode_out [5:0] $end
$var wire 6 z funct_in [5:0] $end
$var wire 6 { opcode_in [5:0] $end
$var wire 1 B RegWrite_out $end
$var wire 1 D RegDst_out $end
$var wire 1 | R_xor $end
$var wire 1 } R_subu $end
$var wire 1 ~ R_sub $end
$var wire 1 !" R_srlv $end
$var wire 1 "" R_srl $end
$var wire 1 #" R_srav $end
$var wire 1 $" R_sra $end
$var wire 1 %" R_slt $end
$var wire 1 &" R_sllv $end
$var wire 1 '" R_sll $end
$var wire 1 (" R_or $end
$var wire 1 )" R_nor $end
$var wire 1 *" R_jr $end
$var wire 1 +" R_and $end
$var wire 1 ," R_addu $end
$var wire 1 -" R_add $end
$var wire 1 U MemtoReg_out $end
$var wire 1 X MemWrite_out $end
$var wire 1 Y Jump_out $end
$var wire 1 ." J_jal $end
$var wire 1 /" J_j $end
$var wire 1 0" I_xori $end
$var wire 1 1" I_sw $end
$var wire 1 2" I_ori $end
$var wire 1 3" I_lw $end
$var wire 1 4" I_bne $end
$var wire 1 5" I_beq $end
$var wire 1 6" I_andi $end
$var wire 1 7" I_addiu $end
$var wire 1 8" I_addi $end
$var wire 1 ` Branch_out $end
$var wire 1 d ALUSrc_out $end
$upscope $end
$scope module data_mem $end
$var wire 1 " CLOCK $end
$var wire 32 9" ReadData_out [31:0] $end
$var wire 1 . fin_sign $end
$var wire 32 :" WriteData_in [31:0] $end
$var wire 1 V MemWrite $end
$var wire 32 ;" ALUOut_in [31:0] $end
$var integer 32 <" i [31:0] $end
$var integer 32 =" out_file [31:0] $end
$upscope $end
$scope module ex_mem $end
$var wire 1 i ALUNeg_in $end
$var wire 32 >" ALUOut_in [31:0] $end
$var wire 1 b ALUZero_in $end
$var wire 1 " CLOCK $end
$var wire 32 ?" WriteData_in [31:0] $end
$var wire 5 @" WriteReg_in [4:0] $end
$var wire 1 A RegWrite_in $end
$var wire 1 T MemtoReg_in $end
$var wire 1 W MemWrite_in $end
$var reg 1 h ALUNeg_out $end
$var reg 32 A" ALUOut_out [31:0] $end
$var reg 1 a ALUZero_out $end
$var reg 1 V MemWrite_out $end
$var reg 1 S MemtoReg_out $end
$var reg 1 @ RegWrite_out $end
$var reg 32 B" WriteData_out [31:0] $end
$var reg 5 C" WriteReg_out [4:0] $end
$upscope $end
$scope module hazard_unit $end
$var wire 6 D" Funct_D [5:0] $end
$var wire 1 S MemtoReg_M $end
$var wire 6 E" Opcode_D [5:0] $end
$var wire 1 @ RegWrite_M $end
$var wire 5 F" Rs_D [4:0] $end
$var wire 5 G" Rt_D [4:0] $end
$var wire 1 4 Stall_D $end
$var wire 1 3 Stall_F $end
$var wire 5 H" WriteReg_M [4:0] $end
$var wire 1 I" waiting_for_B $end
$var wire 1 J" waiting_for_A $end
$var wire 1 % waiting $end
$var wire 5 K" WriteReg_W [4:0] $end
$var wire 5 L" WriteReg_E [4:0] $end
$var wire 5 M" Rt_E [4:0] $end
$var wire 5 N" Rs_E [4:0] $end
$var wire 1 ? RegWrite_W $end
$var wire 1 A RegWrite_E $end
$var wire 3 O" PC_Src_S [2:0] $end
$var wire 1 R MemtoReg_W $end
$var wire 1 T MemtoReg_E $end
$var wire 2 P" ForwardB_E [1:0] $end
$var wire 2 Q" ForwardA_E [1:0] $end
$var wire 1 ^ Flush_E $end
$var wire 1 _ Flush_D $end
$scope function Forward_D $end
$var reg 5 R" R_E [4:0] $end
$var reg 1 S" RegWrite_E $end
$var reg 1 T" RegWrite_M $end
$var reg 1 U" RegWrite_W $end
$var reg 5 V" WriteReg_E [4:0] $end
$var reg 5 W" WriteReg_M [4:0] $end
$var reg 5 X" WriteReg_W [4:0] $end
$upscope $end
$scope function Forward_E $end
$var reg 5 Y" R_E [4:0] $end
$var reg 1 Z" RegWrite_M $end
$var reg 1 [" RegWrite_W $end
$var reg 5 \" WriteReg_M [4:0] $end
$var reg 5 ]" WriteReg_W [4:0] $end
$upscope $end
$scope function Stall $end
$var reg 6 ^" Funct_D [5:0] $end
$var reg 1 _" MemtoReg_E $end
$var reg 1 `" MemtoReg_M $end
$var reg 1 a" MemtoReg_W $end
$var reg 6 b" Opcode_D [5:0] $end
$var reg 5 c" Rs_D [4:0] $end
$var reg 5 d" Rt_D [4:0] $end
$var reg 5 e" WriteReg_E [4:0] $end
$var reg 5 f" WriteReg_M [4:0] $end
$var reg 5 g" WriteReg_W [4:0] $end
$upscope $end
$upscope $end
$scope module id_ex $end
$var wire 1 d ALUSrc_in $end
$var wire 1 " CLOCK $end
$var wire 1 ^ Flush $end
$var wire 6 h" Funct_in [5:0] $end
$var wire 1 X MemWrite_in $end
$var wire 1 U MemtoReg_in $end
$var wire 6 i" Opcode_in [5:0] $end
$var wire 5 j" Rd_in [4:0] $end
$var wire 1 D RegDst_in $end
$var wire 1 B RegWrite_in $end
$var wire 5 k" Rs_in [4:0] $end
$var wire 5 l" Rt_in [4:0] $end
$var wire 5 m" Sa_in [4:0] $end
$var wire 32 n" se_imme_in [31:0] $end
$var wire 32 o" regB_data_in [31:0] $end
$var wire 32 p" regA_data_in [31:0] $end
$var reg 1 c ALUSrc_out $end
$var reg 6 q" Funct_out [5:0] $end
$var reg 1 W MemWrite_out $end
$var reg 1 T MemtoReg_out $end
$var reg 6 r" Opcode_out [5:0] $end
$var reg 5 s" Rd_out [4:0] $end
$var reg 1 C RegDst_out $end
$var reg 1 A RegWrite_out $end
$var reg 5 t" Rs_out [4:0] $end
$var reg 5 u" Rt_out [4:0] $end
$var reg 5 v" Sa_out [4:0] $end
$var reg 32 w" regA_data_out [31:0] $end
$var reg 32 x" regB_data_out [31:0] $end
$var reg 32 y" se_imme_out [31:0] $end
$upscope $end
$scope module if_id $end
$var wire 1 " CLOCK $end
$var wire 1 _ Flush $end
$var wire 1 4 Stall $end
$var wire 32 z" branch_PC [31:0] $end
$var wire 32 {" inst_in [31:0] $end
$var wire 32 |" PC_add4_in [31:0] $end
$var reg 32 }" PC_add4_out [31:0] $end
$var reg 32 ~" inst_out [31:0] $end
$upscope $end
$scope module jump_gen $end
$var wire 32 !# PC_add4_in [31:0] $end
$var wire 26 "# addr_in [25:0] $end
$var wire 32 ## jump_out [31:0] $end
$upscope $end
$scope module mem $end
$var wire 1 " CLOCK $end
$var wire 32 $# inst_out [31:0] $end
$var wire 32 %# PC_in [31:0] $end
$var reg 1 &# change_sign $end
$var reg 3 '# cnt [2:0] $end
$var reg 1 . fin_sign $end
$var integer 32 (# i [31:0] $end
$upscope $end
$scope module mem_wb $end
$var wire 32 )# ALUOut_in [31:0] $end
$var wire 1 " CLOCK $end
$var wire 1 S MemtoReg_in $end
$var wire 32 *# ReadData_in [31:0] $end
$var wire 1 @ RegWrite_in $end
$var wire 5 +# WriteReg_in [4:0] $end
$var reg 32 ,# ALUOut_out [31:0] $end
$var reg 1 R MemtoReg_out $end
$var reg 32 -# ReadData_out [31:0] $end
$var reg 1 ? RegWrite_out $end
$var reg 5 .# WriteReg_out [4:0] $end
$upscope $end
$scope module mux2_bit32_1 $end
$var wire 32 /# A1 [31:0] $end
$var wire 1 c S $end
$var wire 32 0# Y [31:0] $end
$var wire 32 1# A0 [31:0] $end
$scope function Y_out $end
$var reg 32 2# A0 [31:0] $end
$var reg 32 3# A1 [31:0] $end
$var reg 1 4# S $end
$upscope $end
$upscope $end
$scope module mux2_bit32_2 $end
$var wire 32 5# A0 [31:0] $end
$var wire 32 6# A1 [31:0] $end
$var wire 1 R S $end
$var wire 32 7# Y [31:0] $end
$scope function Y_out $end
$var reg 32 8# A0 [31:0] $end
$var reg 32 9# A1 [31:0] $end
$var reg 1 :# S $end
$upscope $end
$upscope $end
$scope module mux2_bit5_1 $end
$var wire 5 ;# A0 [4:0] $end
$var wire 5 <# A1 [4:0] $end
$var wire 1 C S $end
$var wire 5 =# Y [4:0] $end
$scope function Y_out $end
$var reg 5 ># A0 [4:0] $end
$var reg 5 ?# A1 [4:0] $end
$var reg 1 @# S $end
$upscope $end
$upscope $end
$scope module mux3_bit32_1 $end
$var wire 32 A# A0 [31:0] $end
$var wire 32 B# A1 [31:0] $end
$var wire 32 C# A2 [31:0] $end
$var wire 2 D# S [1:0] $end
$var wire 32 E# Y [31:0] $end
$scope function Y_out $end
$var reg 32 F# A0 [31:0] $end
$var reg 32 G# A1 [31:0] $end
$var reg 32 H# A2 [31:0] $end
$var reg 2 I# S [1:0] $end
$upscope $end
$upscope $end
$scope module mux3_bit32_2 $end
$var wire 32 J# A0 [31:0] $end
$var wire 32 K# A1 [31:0] $end
$var wire 32 L# A2 [31:0] $end
$var wire 2 M# S [1:0] $end
$var wire 32 N# Y [31:0] $end
$scope function Y_out $end
$var reg 32 O# A0 [31:0] $end
$var reg 32 P# A1 [31:0] $end
$var reg 32 Q# A2 [31:0] $end
$var reg 2 R# S [1:0] $end
$upscope $end
$upscope $end
$scope module mux5_bit32_1 $end
$var wire 32 S# A1 [31:0] $end
$var wire 32 T# A2 [31:0] $end
$var wire 32 U# A4 [31:0] $end
$var wire 32 V# Y [31:0] $end
$var wire 3 W# S [2:0] $end
$var wire 32 X# A3 [31:0] $end
$var wire 32 Y# A0 [31:0] $end
$scope function Y_out $end
$var reg 32 Z# A0 [31:0] $end
$var reg 32 [# A1 [31:0] $end
$var reg 32 \# A2 [31:0] $end
$var reg 32 ]# A3 [31:0] $end
$var reg 32 ^# A4 [31:0] $end
$var reg 3 _# S [2:0] $end
$upscope $end
$upscope $end
$scope module pc $end
$var wire 1 " CLOCK $end
$var wire 32 `# PC_in [31:0] $end
$var wire 1 3 Stall $end
$var reg 32 a# PC_out [31:0] $end
$upscope $end
$scope module pc_add4 $end
$var wire 32 b# PC_org [31:0] $end
$var wire 32 c# PC_add4 [31:0] $end
$upscope $end
$scope module pc_src $end
$var wire 1 ` Branch $end
$var wire 6 d# Funct [5:0] $end
$var wire 1 Y Jump $end
$var wire 6 e# Opcode [5:0] $end
$var wire 1 % waiting $end
$var wire 32 f# regB_val [31:0] $end
$var wire 32 g# regA_val [31:0] $end
$var wire 3 h# S [2:0] $end
$scope function bj_S $end
$var reg 1 i# Branch $end
$var reg 6 j# Funct [5:0] $end
$var reg 1 k# Jump $end
$var reg 6 l# Opcode [5:0] $end
$var reg 1 m# regA_val $end
$var reg 1 n# regB_val $end
$var reg 1 o# waiting $end
$upscope $end
$upscope $end
$scope module reg_file $end
$var wire 1 " CLOCK $end
$var wire 1 Y Jump_D $end
$var wire 6 p# Opcode_D [5:0] $end
$var wire 32 q# PC_pre [31:0] $end
$var wire 1 ? RegWrite $end
$var wire 32 r# data_a0 [31:0] $end
$var wire 32 s# data_a1 [31:0] $end
$var wire 5 t# regA_addr [4:0] $end
$var wire 32 u# regA_data [31:0] $end
$var wire 5 v# regB_addr [4:0] $end
$var wire 32 w# regB_data [31:0] $end
$var wire 5 x# regD_addr [4:0] $end
$var wire 32 y# regD_data [31:0] $end
$upscope $end
$scope module sign_ext $end
$var wire 16 z# imme_in [15:0] $end
$var wire 32 {# se_imme_out [31:0] $end
$upscope $end
$upscope $end
$upscope $end
$enddefinitions $end
#0
$dumpvars
bx {#
bx z#
bx y#
bx x#
bx w#
bx v#
bx u#
bx t#
bx s#
bx r#
b100 q#
bx p#
0o#
xn#
xm#
bx l#
xk#
bx j#
xi#
b0 h#
bx g#
bx f#
bx e#
bx d#
b100 c#
b0 b#
b0 a#
b100 `#
b0 _#
bx ^#
bx ]#
bx \#
bx [#
b100 Z#
b100 Y#
bx X#
b0 W#
b100 V#
bx U#
bx T#
bx S#
b0 R#
bx Q#
bx P#
bx O#
bx N#
b0 M#
bx L#
bx K#
bx J#
b0 I#
bx H#
bx G#
bx F#
bx E#
b0 D#
bx C#
bx B#
bx A#
x@#
bx ?#
bx >#
bx =#
bx <#
bx ;#
x:#
bx 9#
bx 8#
bx 7#
bx 6#
bx 5#
x4#
bx 3#
bx 2#
bx 1#
bx 0#
bx /#
bx .#
bx -#
bx ,#
bx +#
bx *#
bx )#
b1000000000 (#
b0 '#
0&#
b0 %#
b100000000100000000000000000001 $#
bx ##
bx "#
bx !#
bx ~"
bx }"
b100 |"
b100000000100000000000000000001 {"
bx z"
bx y"
bx x"
bx w"
bx v"
bx u"
bx t"
bx s"
bx r"
bx q"
bx p"
bx o"
bx n"
bx m"
bx l"
bx k"
bx j"
bx i"
bx h"
bx g"
bx f"
bx e"
bx d"
bx c"
bx b"
xa"
x`"
x_"
bx ^"
bx ]"
bx \"
x["
xZ"
bx Y"
bx X"
bx W"
bx V"
xU"
xT"
xS"
bx R"
b0 Q"
b0 P"
b0 O"
bx N"
bx M"
bx L"
bx K"
0J"
0I"
bx H"
bx G"
bx F"
bx E"
bx D"
bx C"
bx B"
bx A"
bx @"
bx ?"
b0 >"
bx ="
b1000000000 <"
bx ;"
bx :"
bx 9"
x8"
x7"
x6"
x5"
x4"
x3"
x2"
x1"
x0"
x/"
x."
x-"
x,"
x+"
x*"
x)"
x("
x'"
x&"
x%"
x$"
x#"
x""
x!"
x~
x}
x|
bx {
bx z
bx y
bx x
bx w
bx v
bx u
bx t
bx s
bx r
bx q
bx p
bx o
bx n
bx m
bx l
bx k
b0 j
0i
xh
b0 g
bx f
bx e
xd
xc
0b
xa
x`
0_
0^
b0 ]
b0 \
bx [
bx Z
xY
xX
xW
xV
xU
xT
xS
xR
bx Q
bx P
b0 O
b0 N
bx M
b100 L
bx K
bx J
b100 I
bx H
bx G
bx F
bx E
xD
xC
xB
xA
x@
x?
bx >
bx =
bx <
bx ;
bx :
bx 9
bx 8
bx 7
bx 6
bx 5
04
03
bx 2
bx 1
bx 0
bx /
0.
bx -
b100000000100000000000000000001 ,
bx +
bx *
bx )
bx (
bx '
bx &
0%
bx $
bx #
0"
0!
$end
#5000
1B
0D
1d
0k#
0Y
0i#
0`
0U
0X
0-"
0,"
0~
0}
0+"
0)"
0("
0|
0'"
0&"
0""
0!"
0$"
0#"
0%"
0*"
0m#
18"
07"
06"
02"
00"
05"
04"
03"
01"
0/"
0."
b10000000000000000000100 \#
b1 j#
b1000 l#
b10000 R"
b10000 d"
b0 c"
b1 ^"
b1000 b"
b10000000000000000000100 J
b10000000000000000000100 ##
b10000000000000000000100 T#
b1000 I
b1000 V#
b1000 `#
b1000 q#
b0 ^#
b0 ]#
b1000 [#
b1000 Z#
b100000000000000000001 "#
b1000 K
b1000 v
b1000 z"
b1000 S#
b1 '
b1 u
b1 n"
b1 {#
b1 z#
b10000 v#
b0 +
b0 p"
b0 X#
b0 g#
b0 u#
b0 t#
b1 [
b1 x
b1 D"
b1 h"
b1 d#
b1 z
b1000 Q
b1000 y
b1000 E"
b1000 i"
b1000 e#
b1000 p#
b1000 {
b0 9
b0 m"
b0 H
b0 j"
b10000 ;
b10000 G"
b10000 l"
b0 =
b0 F"
b0 k"
b0 G#
b0 P#
b1000 L
b1000 |"
b1000 Y#
b1000 c#
b100000000100010000000000000001 ,
b100000000100010000000000000001 {"
b100000000100010000000000000001 $#
b100 O
b100 %#
b100 a#
b100 b#
b0 U#
b100 M
b100 w
b100 }"
b100 !#
b100000000100000000000000000001 -
b100000000100000000000000000001 ~"
b0 F
b0 9"
b0 *#
b0 f
b0 ;"
b0 A"
b0 )#
b0 B#
b0 K#
0h
0a
1"
1!
#10000
0"
0!
#15000
b1 s
b10001000000000000000100 \#
b0 9#
b0 8#
b10000 e"
b10001 d"
0_"
b10001 R"
b10000 V"
1S"
b1 6
b1 l
b1 0#
14#
b1 3#
b1 g
b1 j
b1 >"
b1 p
b1000 q
b0 t
b0 r
b10000 1
b10000 @"
b10000 L"
b10000 =#
0@#
b0 ?#
b10000 >#
b10000 Y"
b0 7
b0 m
b0 E#
b0 F#
b10001000000000000000100 J
b10001000000000000000100 ##
b10001000000000000000100 T#
b100010000000000000001 "#
b10001 v#
b10001 ;
b10001 G"
b10001 l"
b1100 I
b1100 V#
b1100 `#
b1100 q#
b100 ^#
b1100 [#
b1100 Z#
b0 E
b0 -#
b0 6#
b0 e
b0 ,#
b0 5#
0C
1c
b1 Z
b1 o
b1 q"
b1000 P
b1000 n
b1000 r"
0W
0T
1A
b1 &
b1 y"
b1 /#
b0 #
b0 8
b0 k
b0 v"
b0 G
b0 s"
b0 <#
b10000 :
b10000 M"
b10000 u"
b10000 ;#
b0 <
b0 N"
b0 t"
b0 *
b0 w"
b0 A#
b1100 K
b1100 v
b1100 z"
b1100 S#
b100 U#
b1000 M
b1000 w
b1000 }"
b1000 !#
b100000000100010000000000000001 -
b100000000100010000000000000001 ~"
b1100 L
b1100 |"
b1100 Y#
b1100 c#
b100000000100100000000000000001 ,
b100000000100100000000000000001 {"
b100000000100100000000000000001 $#
b1000 O
b1000 %#
b1000 a#
b1000 b#
1"
1!
#20000
0"
0!
#25000
b10001 e"
b10010 d"
b10001 V"
b10000 I
b10000 V#
b10000 `#
b10000 q#
b1000 ^#
b10010000000000000000100 \#
b10000 [#
b10000 Z#
b10010000000000000000100 J
b10010000000000000000100 ##
b10010000000000000000100 T#
b100100000000000000001 "#
b10010 v#
b10010 ;
b10010 G"
b10010 l"
b10001 1
b10001 @"
b10001 L"
b10001 =#
b10001 >#
b1 G#
b1 P#
b10000 f"
0`"
b10010 R"
b10000 W"
1T"
b0 Y"
b10000 \"
1Z"
b10000 L
b10000 |"
b10000 Y#
b10000 c#
b100000000100110000000000000001 ,
b100000000100110000000000000001 {"
b100000000100110000000000000001 $#
b1100 O
b1100 %#
b1100 a#
b1100 b#
b10000 K
b10000 v
b10000 z"
b10000 S#
b1000 U#
b1100 M
b1100 w
b1100 }"
b1100 !#
b100000000100100000000000000001 -
b100000000100100000000000000001 ~"
b10001 :
b10001 M"
b10001 u"
b10001 ;#
b10000 0
b10000 C"
b10000 H"
b10000 +#
b1 f
b1 ;"
b1 A"
b1 )#
b1 B#
b1 K#
0V
0S
1@
1"
1!
#30000
0"
0!
#35000
b1 H#
b1 Q#
b10011000000000000000100 \#
b1 >
b1 7#
b1 C#
b1 L#
b1 y#
0:#
b1 8#
b0 R"
b10000 X"
b10001 W"
b10010 V"
1U"
b10000 g"
b10001 f"
b10010 e"
b10011 d"
0a"
b10010 1
b10010 @"
b10010 L"
b10010 =#
b10010 >#
b0 Y"
b10000 ]"
b10001 \"
1["
b10011000000000000000100 J
b10011000000000000000100 ##
b10011000000000000000100 T#
b100110000000000000001 "#
b10011 v#
b10011 ;
b10011 G"
b10011 l"
b10100 I
b10100 V#
b10100 `#
b10100 q#
b1100 ^#
b10100 [#
b10100 Z#
b10000 /
b10000 K"
b10000 .#
b10000 x#
b1 e
b1 ,#
b1 5#
0R
1?
b10001 0
b10001 C"
b10001 H"
b10001 +#
b10010 :
b10010 M"
b10010 u"
b10010 ;#
b10100 K
b10100 v
b10100 z"
b10100 S#
b1100 U#
b10000 M
b10000 w
b10000 }"
b10000 !#
b100000000100110000000000000001 -
b100000000100110000000000000001 ~"
b10100 L
b10100 |"
b10100 Y#
b10100 c#
b100000000101000000000000000001 ,
b100000000101000000000000000001 {"
b100000000101000000000000000001 $#
b10000 O
b10000 %#
b10000 a#
b10000 b#
1"
1!
#40000
0"
0!
#45000
b10011 e"
b10100 d"
b10011 V"
b11000 I
b11000 V#
b11000 `#
b11000 q#
b10000 ^#
b10100000000000000000100 \#
b11000 [#
b11000 Z#
b10100000000000000000100 J
b10100000000000000000100 ##
b10100000000000000000100 T#
b101000000000000000001 "#
b10100 v#
b10100 ;
b10100 G"
b10100 l"
b10011 1
b10011 @"
b10011 L"
b10011 =#
b10011 >#
b10001 g"
b10010 f"
b10011 Y"
b10001 ]"
b10010 \"
b10100 R"
b10001 X"
b10010 W"
b11000 L
b11000 |"
b11000 Y#
b11000 c#
b100000000101010000000000000001 ,
b100000000101010000000000000001 {"
b100000000101010000000000000001 $#
b10100 O
b10100 %#
b10100 a#
b10100 b#
b11000 K
b11000 v
b11000 z"
b11000 S#
b10000 U#
b10100 M
b10100 w
b10100 }"
b10100 !#
b100000000101000000000000000001 -
b100000000101000000000000000001 ~"
b10011 :
b10011 M"
b10011 u"
b10011 ;#
b10010 0
b10010 C"
b10010 H"
b10010 +#
b10001 /
b10001 K"
b10001 .#
b10001 x#
1"
1!
#50000
0"
0!
#55000
b10101000000000000000100 \#
b0 R"
b10010 X"
b10011 W"
b10100 V"
b10010 g"
b10011 f"
b10100 e"
b10101 d"
b10100 1
b10100 @"
b10100 L"
b10100 =#
b10100 >#
b0 Y"
b10010 ]"
b10011 \"
b10101000000000000000100 J
b10101000000000000000100 ##
b10101000000000000000100 T#
b101010000000000000001 "#
b10101 v#
b10101 ;
b10101 G"
b10101 l"
b11100 I
b11100 V#
b11100 `#
b11100 q#
b10100 ^#
b11100 [#
b11100 Z#
b10010 /
b10010 K"
b10010 .#
b10010 x#
b10011 0
b10011 C"
b10011 H"
b10011 +#
b10100 :
b10100 M"
b10100 u"
b10100 ;#
b11100 K
b11100 v
b11100 z"
b11100 S#
b10100 U#
b11000 M
b11000 w
b11000 }"
b11000 !#
b100000000101010000000000000001 -
b100000000101010000000000000001 ~"
b11100 L
b11100 |"
b11100 Y#
b11100 c#
b100000000000100000000001100000 ,
b100000000000100000000001100000 {"
b100000000000100000000001100000 $#
b11000 O
b11000 %#
b11000 a#
b11000 b#
1"
1!
#60000
0"
0!
#65000
b100000 j#
b10101 e"
b10 d"
b100000 ^"
b10101 V"
b100000 I
b100000 V#
b100000 `#
b100000 q#
b11000 ^#
b10000000000110000000 \#
b110011100 [#
b100000 Z#
b10000000000110000000 J
b10000000000110000000 ##
b10000000000110000000 T#
b100000000001100000 "#
b1100000 '
b1100000 u
b1100000 n"
b1100000 {#
b1100000 z#
b10 v#
b100000 [
b100000 x
b100000 D"
b100000 h"
b100000 d#
b100000 z
b1 9
b1 m"
b10 ;
b10 G"
b10 l"
b10101 1
b10101 @"
b10101 L"
b10101 =#
b10101 >#
b10011 g"
b10100 f"
b10101 Y"
b10011 ]"
b10100 \"
b10 R"
b10011 X"
b10100 W"
b100000 L
b100000 |"
b100000 Y#
b100000 c#
b100000000001000000000000000010 ,
b100000000001000000000000000010 {"
b100000000001000000000000000010 $#
b11100 O
b11100 %#
b11100 a#
b11100 b#
b110011100 K
b110011100 v
b110011100 z"
b110011100 S#
b11000 U#
b11100 M
b11100 w
b11100 }"
b11100 !#
b100000000000100000000001100000 -
b100000000000100000000001100000 ~"
b10101 :
b10101 M"
b10101 u"
b10101 ;#
b10100 0
b10100 C"
b10100 H"
b10100 +#
b10011 /
b10011 K"
b10011 .#
b10011 x#
1"
1!
#70000
0"
0!
#75000
b1100000 g
b1100000 j
b1100000 >"
b1100000 s
b100000000000000001000 \#
b10 j#
b0 R"
b10100 X"
b10101 W"
b10 V"
b10100 g"
b10101 f"
b10 e"
b100 d"
b10 ^"
b1100000 6
b1100000 l
b1100000 0#
b1100000 3#
b100000 p
b1 t
b10 1
b10 @"
b10 L"
b10 =#
b10 >#
b0 Y"
b10100 ]"
b10101 \"
b100000000000000001000 J
b100000000000000001000 ##
b100000000000000001000 T#
b1000000000000000010 "#
b10 '
b10 u
b10 n"
b10 {#
b10 z#
b100 v#
b10 [
b10 x
b10 D"
b10 h"
b10 d#
b10 z
b0 9
b0 m"
b100 ;
b100 G"
b100 l"
b100100 I
b100100 V#
b100100 `#
b100100 q#
b11100 ^#
b101000 [#
b100100 Z#
b10100 /
b10100 K"
b10100 .#
b10100 x#
b10101 0
b10101 C"
b10101 H"
b10101 +#
b100000 Z
b100000 o
b100000 q"
b1100000 &
b1100000 y"
b1100000 /#
b1 #
b1 8
b1 k
b1 v"
b10 :
b10 M"
b10 u"
b10 ;#
b101000 K
b101000 v
b101000 z"
b101000 S#
b11100 U#
b100000 M
b100000 w
b100000 }"
b100000 !#
b100000000001000000000000000010 -
b100000000001000000000000000010 ~"
b100100 L
b100100 |"
b100100 Y#
b100100 c#
b100000000001010000000000000100 ,
b100000000001010000000000000100 {"
b100000000001010000000000000100 $#
b100000 O
b100000 %#
b100000 a#
b100000 b#
1"
1!
#80000
0"
0!
#85000
b100 j#
b10 g
b10 j
b10 >"
b10 s
b100 e"
b101 d"
b100 ^"
b100 V"
b101000 I
b101000 V#
b101000 `#
b101000 q#
b100000 ^#
b101000000000000010000 \#
b110100 [#
b101000 Z#
b101000000000000010000 J
b101000000000000010000 ##
b101000000000000010000 T#
b1010000000000000100 "#
b100 '
b100 u
b100 n"
b100 {#
b100 z#
b101 v#
b100 [
b100 x
b100 D"
b100 h"
b100 d#
b100 z
b101 ;
b101 G"
b101 l"
b10 6
b10 l
b10 0#
b10 3#
b10 p
b0 t
b100 1
b100 @"
b100 L"
b100 =#
b100 >#
b1100000 G#
b1100000 P#
b10101 g"
b10 f"
b100 Y"
b10101 ]"
b10 \"
b101 R"
b10101 X"
b10 W"
b101000 L
b101000 |"
b101000 Y#
b101000 c#
b100000000001100000000000001000 ,
b100000000001100000000000001000 {"
b100000000001100000000000001000 $#
b100100 O
b100100 %#
b100100 a#
b100100 b#
b110100 K
b110100 v
b110100 z"
b110100 S#
b100000 U#
b100100 M
b100100 w
b100100 }"
b100100 !#
b100000000001010000000000000100 -
b100000000001010000000000000100 ~"
b10 Z
b10 o
b10 q"
b10 &
b10 y"
b10 /#
b0 #
b0 8
b0 k
b0 v"
b100 :
b100 M"
b100 u"
b100 ;#
b10 0
b10 C"
b10 H"
b10 +#
b1100000 f
b1100000 ;"
b1100000 A"
b1100000 )#
b1100000 B#
b1100000 K#
b10101 /
b10101 K"
b10101 .#
b10101 x#
1"
1!
#90000
0"
0!
